########################################################################################################################################
# PACKETS BE:                                                                                                                          #
#                                                                                                                                      #
#  timestamp   target  size   source  timestamp of node output  number of sequence   timestamp of network input       payload          #
#      0        00XX   XXXX    00XX      XXXX XXXX XXXX XXXX         XXXX XXXX          XXXX XXXX XXXX XXXX            XXXX ...        #
#                                                                                                                                      #
########################################################################################################################################
0001 0001 000A 0010 0000 0000 0000 0001 0000 001F 0008 0009 000A
0041 0001 000A 0010 0000 0000 0000 0041 0000 0020 0008 0009 000A
0081 0001 000A 0010 0000 0000 0000 0081 0000 0021 0008 0009 000A
00C1 0001 000A 0010 0000 0000 0000 00C1 0000 0022 0008 0009 000A
0101 0001 000A 0010 0000 0000 0000 0101 0000 0023 0008 0009 000A
0141 0001 000A 0010 0000 0000 0000 0141 0000 0024 0008 0009 000A
0181 0001 000A 0010 0000 0000 0000 0181 0000 0025 0008 0009 000A
01C1 0001 000A 0010 0000 0000 0000 01C1 0000 0026 0008 0009 000A
0201 0001 000A 0010 0000 0000 0000 0201 0000 0027 0008 0009 000A
0241 0001 000A 0010 0000 0000 0000 0241 0000 0028 0008 0009 000A
