########################################################################################################################################
# PACKETS BE:                                                                                                                          #
#                                                                                                                                      #
#  timestamp   target  size   source  timestamp of node output  number of sequence   timestamp of network input       payload          #
#      0        00XX   XXXX    00XX      XXXX XXXX XXXX XXXX         XXXX XXXX          XXXX XXXX XXXX XXXX            XXXX ...        #
#                                                                                                                                      #
########################################################################################################################################
0001 0011 000A 0011 0000 0000 0000 0001 0000 0029 0008 0009 000A
0101 0011 000A 0011 0000 0000 0000 0101 0000 002A 0008 0009 000A
0201 0011 000A 0011 0000 0000 0000 0201 0000 002B 0008 0009 000A
0301 0011 000A 0011 0000 0000 0000 0301 0000 002C 0008 0009 000A
0401 0011 000A 0011 0000 0000 0000 0401 0000 002D 0008 0009 000A
0501 0011 000A 0011 0000 0000 0000 0501 0000 002E 0008 0009 000A
0601 0011 000A 0011 0000 0000 0000 0601 0000 002F 0008 0009 000A
0701 0011 000A 0011 0000 0000 0000 0701 0000 0030 0008 0009 000A
0801 0011 000A 0011 0000 0000 0000 0801 0000 0031 0008 0009 000A
0901 0011 000A 0011 0000 0000 0000 0901 0000 0032 0008 0009 000A
