########################################################################################################################################
# PACKETS BE:                                                                                                                          #
#                                                                                                                                      #
#  timestamp   target  size   source  timestamp of node output  number of sequence   timestamp of network input       payload          #
#      0        00XX   XXXX    00XX      XXXX XXXX XXXX XXXX         XXXX XXXX          XXXX XXXX XXXX XXXX            XXXX ...        #
#                                                                                                                                      #
########################################################################################################################################
0001 0020 000A 0002 0000 0000 0000 0001 0000 0015 0008 0009 000A
0041 0020 000A 0002 0000 0000 0000 0041 0000 0016 0008 0009 000A
0081 0020 000A 0002 0000 0000 0000 0081 0000 0017 0008 0009 000A
00C1 0020 000A 0002 0000 0000 0000 00C1 0000 0018 0008 0009 000A
0101 0020 000A 0002 0000 0000 0000 0101 0000 0019 0008 0009 000A
0141 0020 000A 0002 0000 0000 0000 0141 0000 001A 0008 0009 000A
0181 0020 000A 0002 0000 0000 0000 0181 0000 001B 0008 0009 000A
01C1 0020 000A 0002 0000 0000 0000 01C1 0000 001C 0008 0009 000A
0201 0020 000A 0002 0000 0000 0000 0201 0000 001D 0008 0009 000A
0241 0020 000A 0002 0000 0000 0000 0241 0000 001E 0008 0009 000A
