########################################################################################################################################
# PACKETS BE:                                                                                                                          #
#                                                                                                                                      #
#  timestamp   target  size   source  timestamp of node output  number of sequence   timestamp of network input       payload          #
#      0        00XX   XXXX    00XX      XXXX XXXX XXXX XXXX         XXXX XXXX          XXXX XXXX XXXX XXXX            XXXX ...        #
#                                                                                                                                      #
########################################################################################################################################
1 0022 000A 0000 0000 0000 0000 0001 0000 0001 0008 0009 000A
