# Test vectors for Arbiter ports
# 0 means force 0
# 1 means force 1
# L means expect 0
# H means expect 1
# X means don’t care
########################
## Clock cycle = 10ns ##
########################
#time Rst   Clk   RequestTable(4:0)
0     1     0     00010
5     1     1     00000
10    0     0     00000
15    0     1     00000
20    0     0     00000
25    0     1     00000
30    0     0     00000
35    0     1     00000
# Packet arrival on port 0
40    0     0     00001
45    0     1     00001
50    0     0     00001
55    0     1     00001
60    0     0     00001
65    0     1     00000
# Packet arrival on port 1 and 3
70    0     0     01010
75    0     1     01010
80    0     0     01010
85    0     1     01010
90    0     0     01010
95    0     1     01000
100   0     0     01000
105   0     1     00000
110   0     0     01010
115   0     1     01010
120   0     0     01010
125   0     1     01010
130   0     0     01010
135   0     1     00000
# 3 packets arrival on all ports
140   0     0     11111
145   0     1     11111
150   0     0     11111
155   0     1     11111
160   0     0     11110
165   0     1     11110
170   0     0     11100
175   0     1     11100
180   0     0     11000
185   1     1     11000
190   1     0     10000
195   1     1     10000
200   0     0     00000
205   0     1     00000

210   0     0     00000


