# Test vectors for CrossBar ports
# 0 means force 0
# 1 means force 1
# L means expect 0
# H means expect 1
# X means don’t care
########################
## Clock cycle = 10ns ##
########################
#time InputFIFO_IsEmpty    InputConnections       OutputConnections        InputFIFO_DataOut                                                                        OutputFIFO_Read 
0     00000                111 111 111 111 111    111 111 111 111 111      0000000000000000 0000000000000000 0000000000000000 0000000000000000 0000000000000000     00000
5     00001                111 111 111 111 111    111 111 111 111 111      0000000000000000 0000000000000000 0000000000000000 0000000000000000 0000000000000000     00001
10    00000                111 111 111 111 111    111 111 111 111 111      0000000000000100 0000000000000011 0000000000000010 0000000000000001 0000000000000000     00000
15    00001                111 111 111 111 111    111 111 111 111 111      0000000000000100 0000000000000011 0000000000000010 0000000000000001 0000000000000000     00001
# First Port packet is coming
20    00000                111 111 111 111 000    111 111 111 111 000      0000000000000100 0000000000000011 0000000000000010 0000000000000001 0000000000000000     00000
25    00001                111 111 111 111 000    111 111 111 111 000      0000000000000100 0000000000000011 0000000000000010 0000000000000001 0000000000000000     00001
30    00000                111 111 111 111 011    111 000 111 111 111      0000000000000100 0000000000000011 0000000000000010 0000000000000001 0000000000000000     00000
35    00001                111 111 111 111 011    111 000 111 111 111      0000000000000100 0000000000000011 0000000000000010 0000000000000001 0000000000000000     00001
40    00000                111 111 111 111 100    000 111 111 111 111      0000000000000100 0000000000000011 0000000000000010 0000000000000001 0000000000000000     00000
45    00001                111 111 111 111 100    000 111 111 111 111      0000000000000100 0000000000000011 0000000000000010 0000000000000001 0000000000000000     00001
50    00000                111 111 111 111 001    111 111 111 000 111      0000000000000100 0000000000000011 0000000000000010 0000000000000001 0000000000000000     00000
55    00001                111 111 111 111 111    111 111 111 111 111      0000000000000100 0000000000000011 0000000000000010 0000000000000001 0000000000000000     00001
60    00000                111 111 111 111 111    111 111 111 111 111      0000000000000100 0000000000000011 0000000000000010 0000000000000001 0000000000000000     00000
65    00001                111 111 111 111 111    111 111 111 111 111      0000000000000100 0000000000000011 0000000000000010 0000000000000001 0000000000000000     00001
# Second Port packet is coming
70    00000                111 111 111 000 111    111 111 111 111 001      0000000000000100 0000000000000011 0000000000000010 0000000000000001 0000000000000000     00000
75    00001                111 111 111 000 111    111 111 111 111 001      0000000000000100 0000000000000011 0000000000000010 0000000000000001 0000000000000000     00001
80    00000                111 111 111 000 111    111 111 111 111 001      0000000000000100 0000000000000011 0000000000000010 0000000000000001 0000000000000000     00000
85    00001                111 111 111 000 111    111 111 111 111 001      0000000000000100 0000000000000011 0000000000000010 0000000000000001 0000000000000000     00001
90    00000                111 111 111 011 111    111 001 111 111 111      0000000000000100 0000000000000011 0000000000000010 0000000000000001 0000000000000000     00000
95    00001                111 111 111 011 111    111 001 111 111 111      0000000000000100 0000000000000011 0000000000000010 0000000000000001 0000000000000000     00001
100   00000                111 111 111 011 111    111 001 111 111 111      0000000000000100 0000000000000011 0000000000000010 0000000000000001 0000000000000000     00000
105   00001                111 111 111 011 111    111 001 111 111 111      0000000000000100 0000000000000011 0000000000000010 0000000000000001 0000000000000000     00001
110   00000                111 111 111 001 111    111 111 111 001 111      0000000000000100 0000000000000011 0000000000000010 0000000000000001 0000000000000000     00000
115   00001                111 111 111 001 111    111 111 111 001 111      0000000000000100 0000000000000011 0000000000000010 0000000000000001 0000000000000000     00001
120   00000                111 111 111 001 111    111 111 111 001 111      0000000000000100 0000000000000011 0000000000000010 0000000000000001 0000000000000000     00000
125   00001                111 111 111 001 111    111 111 111 001 111      0000000000000100 0000000000000011 0000000000000010 0000000000000001 0000000000000000     00001
130   00000                111 111 111 001 111    111 111 111 001 111      0000000000000100 0000000000000011 0000000000000010 0000000000000001 0000000000000000     00000
135   00001                111 111 111 001 111    111 111 111 001 111      0000000000000100 0000000000000011 0000000000000010 0000000000000001 0000000000000000     00001
# Three Port packet is coming
140   00000                100 111 111 111 111    100 111 111 111 111      0000000000000100 0000000000000011 0000000000000010 0000000000000001 0000000000000000     00000
145   00001                100 111 111 111 111    100 111 111 111 111      0000000000000100 0000000000000011 0000000000000010 0000000000000001 0000000000000000     00001
150   00000                100 111 111 111 111    100 111 111 111 111      0000000000000100 0000000000000011 0000000000000010 0000000000000001 0000000000000000     00000
155   00001                100 111 111 111 111    100 111 111 111 111      0000000000000100 0000000000000011 0000000000000010 0000000000000001 0000000000000000     00001
160   00000                100 111 111 111 111    100 111 111 111 111      0000000000000100 0000000000000011 0000000000000010 0000000000000001 0000000000000000     00000
165   00001                100 111 111 111 111    100 111 111 111 111      0000000000000100 0000000000000011 0000000000000010 0000000000000001 0000000000000000     00001
170   00000                100 111 111 111 111    100 111 111 111 111      0000000000000100 0000000000000011 0000000000000010 0000000000000001 0000000000000000     00000
175   00001                111 111 010 111 111    111 111 010 111 111      0000000000000100 0000000000000011 0000000000000010 0000000000000001 0000000000000000     00001
180   00000                111 111 010 111 111    111 111 010 111 111      0000000000000100 0000000000000011 0000000000000010 0000000000000001 0000000000000000     00000
185   00001                111 111 010 111 111    111 111 010 111 111      0000000000000100 0000000000000011 0000000000000010 0000000000000001 0000000000000000     00001
190   00000                111 111 010 111 111    111 111 010 111 111      0000000000000100 0000000000000011 0000000000000010 0000000000000001 0000000000000000     00000
195   00001                111 111 010 111 111    111 111 010 111 111      0000000000000100 0000000000000011 0000000000000010 0000000000000001 0000000000000000     00001
200   00000                111 111 010 111 111    111 111 010 111 111      0000000000000100 0000000000000011 0000000000000010 0000000000000001 0000000000000000     00000
205   00001                111 111 010 111 111    111 111 010 111 111      0000000000000100 0000000000000011 0000000000000010 0000000000000001 0000000000000000     00001

210   00000                111 111 111 111 111    111 111 111 111 111      0000000000000100 0000000000000011 0000000000000010 0000000000000001 0000000000000000     00000
