# Test vectors for RequestManager ports
# 0 means force 0
# 1 means force 1
# L means expect 0
# H means expect 1
# X means don’t care
########################
## Clock cycle = 10ns ##
########################
#time FIFO_IsEmpty   TransfertTable 
0     11111          00000
5     11111          00000
10    11111          00000
15    11111          00000
# First Port packet is coming
20    01111          00000
25    01111          00000
30    01111          10000
35    01111          10000
40    01111          10000
45    01111          00000
50    01111          00000
55    01111          00000
60    01111          00000
65    01111          00000
# Second Port packet is coming
70    10111          00000
75    10111          00000
80    10111          00000
85    10111          01000
90    10111          01000
95    10111          01000
100   10111          01000
105   10111          01000
110   10111          01000
115   10111          01000
120   10111          00000
125   10111          00000
130   10111          00000
135   10111          00000
# Three Port packet is coming
140   01010          00000
145   01010          10000
150   01010          10000
155   01010          10100
160   01010          10100
165   01010          10101
170   01010          00101
175   01010          00101
180   01010          00001
185   01010          00001
190   01010          00000
195   01010          00000
200   01010          00000
205   01010          00000

210   01010          00000
