########################################################################################################################################
# PACKETS BE:                                                                                                                          #
#                                                                                                                                      #
#  timestamp   target  size   source  timestamp of node output  number of sequence   timestamp of network input       payload          #
#      0        00XX   XXXX    00XX      XXXX XXXX XXXX XXXX         XXXX XXXX          XXXX XXXX XXXX XXXX            XXXX ...        #
#                                                                                                                                      #
########################################################################################################################################
1 0002 000A 0020 0000 0000 0000 0001 0000 003D 0008 0009 000A
41 0002 000A 0020 0000 0000 0000 0041 0000 003E 0008 0009 000A
81 0002 000A 0020 0000 0000 0000 0081 0000 003F 0008 0009 000A
C1 0002 000A 0020 0000 0000 0000 00C1 0000 0040 0008 0009 000A
101 0002 000A 0020 0000 0000 0000 0101 0000 0041 0008 0009 000A
141 0002 000A 0020 0000 0000 0000 0141 0000 0042 0008 0009 000A
181 0002 000A 0020 0000 0000 0000 0181 0000 0043 0008 0009 000A
1C1 0002 000A 0020 0000 0000 0000 01C1 0000 0044 0008 0009 000A
201 0002 000A 0020 0000 0000 0000 0201 0000 0045 0008 0009 000A
241 0002 000A 0020 0000 0000 0000 0241 0000 0046 0008 0009 000A
